waves/top.vcd
$date
	Thu Nov 27 20:46:56 2025
$end
$version
	Icarus Verilog
$end
$timescale
	1ps
$end
$scope module top_tb $end
$var wire 8 ! led [7:0] $end
$var reg 1 " clk $end
$var reg 1 # rst $end
$scope module dut $end
$var wire 1 $ btn $end
$var wire 1 " clk $end
$var wire 32 % instruction0 [31:0] $end
$var wire 32 & instruction1 [31:0] $end
$var wire 1 # rst $end
$var wire 5 ' reg4 [4:0] $end
$var wire 5 ( reg3 [4:0] $end
$var wire 5 ) reg2 [4:0] $end
$var wire 5 * reg1 [4:0] $end
$var wire 32 + read_data2_dp2 [31:0] $end
$var wire 32 , read_data2_dp1 [31:0] $end
$var wire 32 - read_data1_dp2 [31:0] $end
$var wire 32 . read_data1_dp1 [31:0] $end
$var wire 7 / opcode_2 [6:0] $end
$var wire 7 0 opcode_1 [6:0] $end
$var wire 1 1 nothing_filled $end
$var wire 8 2 led [7:0] $end
$var wire 32 3 imm2 [31:0] $end
$var wire 32 4 imm1 [31:0] $end
$var wire 1 5 hz1_clk $end
$var wire 1 6 freeze2 $end
$var wire 1 7 freeze1 $end
$var wire 1 8 dependency_on_ins2 $end
$var wire 1 9 datapath_2_enable $end
$var wire 1 : datapath_1_enable $end
$var wire 5 ; RegD2 [4:0] $end
$var wire 5 < RegD1 [4:0] $end
$var wire 1 = ALU_src2 $end
$var wire 1 > ALU_src1 $end
$var wire 32 ? ALU_result2 [31:0] $end
$var wire 32 @ ALU_result1 [31:0] $end
$scope module alu1 $end
$var wire 1 A ALU_control $end
$var wire 32 B instruction [31:0] $end
$var wire 7 C opcode_out [6:0] $end
$var wire 32 D src_B [31:0] $end
$var wire 32 E sub_result [31:0] $end
$var wire 32 F src_A [31:0] $end
$var wire 7 G opcode [6:0] $end
$var wire 7 H funct7 [6:0] $end
$var wire 3 I funct3 [2:0] $end
$var reg 32 J ALU_result [31:0] $end
$scope module subtractor $end
$var wire 32 K B [31:0] $end
$var wire 1 L Cin $end
$var wire 32 M S [31:0] $end
$var wire 1 N Cout $end
$var wire 31 O C [30:0] $end
$var wire 32 P A [31:0] $end
$scope module fa0 $end
$var wire 1 Q A $end
$var wire 1 R B $end
$var wire 1 L Cin $end
$var wire 1 S Cout $end
$var wire 1 T S $end
$upscope $end
$scope module fa1 $end
$var wire 1 U A $end
$var wire 1 V B $end
$var wire 1 W Cin $end
$var wire 1 X Cout $end
$var wire 1 Y S $end
$upscope $end
$scope module fa10 $end
$var wire 1 Z A $end
$var wire 1 [ B $end
$var wire 1 \ Cin $end
$var wire 1 ] Cout $end
$var wire 1 ^ S $end
$upscope $end
$scope module fa11 $end
$var wire 1 _ A $end
$var wire 1 ` B $end
$var wire 1 a Cin $end
$var wire 1 b Cout $end
$var wire 1 c S $end
$upscope $end
$scope module fa12 $end
$var wire 1 d A $end
$var wire 1 e B $end
$var wire 1 f Cin $end
$var wire 1 g Cout $end
$var wire 1 h S $end
$upscope $end
$scope module fa13 $end
$var wire 1 i A $end
$var wire 1 j B $end
$var wire 1 k Cin $end
$var wire 1 l Cout $end
$var wire 1 m S $end
$upscope $end
$scope module fa14 $end
$var wire 1 n A $end
$var wire 1 o B $end
$var wire 1 p Cin $end
$var wire 1 q Cout $end
$var wire 1 r S $end
$upscope $end
$scope module fa15 $end
$var wire 1 s A $end
$var wire 1 t B $end
$var wire 1 u Cin $end
$var wire 1 v Cout $end
$var wire 1 w S $end
$upscope $end
$scope module fa16 $end
$var wire 1 x A $end
$var wire 1 y B $end
$var wire 1 z Cin $end
$var wire 1 { Cout $end
$var wire 1 | S $end
$upscope $end
$scope module fa17 $end
$var wire 1 } A $end
$var wire 1 ~ B $end
$var wire 1 !" Cin $end
$var wire 1 "" Cout $end
$var wire 1 #" S $end
$upscope $end
$scope module fa18 $end
$var wire 1 $" A $end
$var wire 1 %" B $end
$var wire 1 &" Cin $end
$var wire 1 '" Cout $end
$var wire 1 (" S $end
$upscope $end
$scope module fa19 $end
$var wire 1 )" A $end
$var wire 1 *" B $end
$var wire 1 +" Cin $end
$var wire 1 ," Cout $end
$var wire 1 -" S $end
$upscope $end
$scope module fa2 $end
$var wire 1 ." A $end
$var wire 1 /" B $end
$var wire 1 0" Cin $end
$var wire 1 1" Cout $end
$var wire 1 2" S $end
$upscope $end
$scope module fa20 $end
$var wire 1 3" A $end
$var wire 1 4" B $end
$var wire 1 5" Cin $end
$var wire 1 6" Cout $end
$var wire 1 7" S $end
$upscope $end
$scope module fa21 $end
$var wire 1 8" A $end
$var wire 1 9" B $end
$var wire 1 :" Cin $end
$var wire 1 ;" Cout $end
$var wire 1 <" S $end
$upscope $end
$scope module fa22 $end
$var wire 1 =" A $end
$var wire 1 >" B $end
$var wire 1 ?" Cin $end
$var wire 1 @" Cout $end
$var wire 1 A" S $end
$upscope $end
$scope module fa23 $end
$var wire 1 B" A $end
$var wire 1 C" B $end
$var wire 1 D" Cin $end
$var wire 1 E" Cout $end
$var wire 1 F" S $end
$upscope $end
$scope module fa24 $end
$var wire 1 G" A $end
$var wire 1 H" B $end
$var wire 1 I" Cin $end
$var wire 1 J" Cout $end
$var wire 1 K" S $end
$upscope $end
$scope module fa25 $end
$var wire 1 L" A $end
$var wire 1 M" B $end
$var wire 1 N" Cin $end
$var wire 1 O" Cout $end
$var wire 1 P" S $end
$upscope $end
$scope module fa26 $end
$var wire 1 Q" A $end
$var wire 1 R" B $end
$var wire 1 S" Cin $end
$var wire 1 T" Cout $end
$var wire 1 U" S $end
$upscope $end
$scope module fa27 $end
$var wire 1 V" A $end
$var wire 1 W" B $end
$var wire 1 X" Cin $end
$var wire 1 Y" Cout $end
$var wire 1 Z" S $end
$upscope $end
$scope module fa28 $end
$var wire 1 [" A $end
$var wire 1 \" B $end
$var wire 1 ]" Cin $end
$var wire 1 ^" Cout $end
$var wire 1 _" S $end
$upscope $end
$scope module fa29 $end
$var wire 1 `" A $end
$var wire 1 a" B $end
$var wire 1 b" Cin $end
$var wire 1 c" Cout $end
$var wire 1 d" S $end
$upscope $end
$scope module fa3 $end
$var wire 1 e" A $end
$var wire 1 f" B $end
$var wire 1 g" Cin $end
$var wire 1 h" Cout $end
$var wire 1 i" S $end
$upscope $end
$scope module fa30 $end
$var wire 1 j" A $end
$var wire 1 k" B $end
$var wire 1 l" Cin $end
$var wire 1 m" Cout $end
$var wire 1 n" S $end
$upscope $end
$scope module fa31 $end
$var wire 1 o" A $end
$var wire 1 p" B $end
$var wire 1 q" Cin $end
$var wire 1 N Cout $end
$var wire 1 r" S $end
$upscope $end
$scope module fa4 $end
$var wire 1 s" A $end
$var wire 1 t" B $end
$var wire 1 u" Cin $end
$var wire 1 v" Cout $end
$var wire 1 w" S $end
$upscope $end
$scope module fa5 $end
$var wire 1 x" A $end
$var wire 1 y" B $end
$var wire 1 z" Cin $end
$var wire 1 {" Cout $end
$var wire 1 |" S $end
$upscope $end
$scope module fa6 $end
$var wire 1 }" A $end
$var wire 1 ~" B $end
$var wire 1 !# Cin $end
$var wire 1 "# Cout $end
$var wire 1 ## S $end
$upscope $end
$scope module fa7 $end
$var wire 1 $# A $end
$var wire 1 %# B $end
$var wire 1 &# Cin $end
$var wire 1 '# Cout $end
$var wire 1 (# S $end
$upscope $end
$scope module fa8 $end
$var wire 1 )# A $end
$var wire 1 *# B $end
$var wire 1 +# Cin $end
$var wire 1 ,# Cout $end
$var wire 1 -# S $end
$upscope $end
$scope module fa9 $end
$var wire 1 .# A $end
$var wire 1 /# B $end
$var wire 1 0# Cin $end
$var wire 1 1# Cout $end
$var wire 1 2# S $end
$upscope $end
$upscope $end
$upscope $end
$scope module alu2 $end
$var wire 1 3# ALU_control $end
$var wire 32 4# instruction [31:0] $end
$var wire 7 5# opcode_out [6:0] $end
$var wire 32 6# src_B [31:0] $end
$var wire 32 7# sub_result [31:0] $end
$var wire 32 8# src_A [31:0] $end
$var wire 7 9# opcode [6:0] $end
$var wire 7 :# funct7 [6:0] $end
$var wire 3 ;# funct3 [2:0] $end
$var reg 32 <# ALU_result [31:0] $end
$scope module subtractor $end
$var wire 32 =# B [31:0] $end
$var wire 1 ># Cin $end
$var wire 32 ?# S [31:0] $end
$var wire 1 @# Cout $end
$var wire 31 A# C [30:0] $end
$var wire 32 B# A [31:0] $end
$scope module fa0 $end
$var wire 1 C# A $end
$var wire 1 D# B $end
$var wire 1 ># Cin $end
$var wire 1 E# Cout $end
$var wire 1 F# S $end
$upscope $end
$scope module fa1 $end
$var wire 1 G# A $end
$var wire 1 H# B $end
$var wire 1 I# Cin $end
$var wire 1 J# Cout $end
$var wire 1 K# S $end
$upscope $end
$scope module fa10 $end
$var wire 1 L# A $end
$var wire 1 M# B $end
$var wire 1 N# Cin $end
$var wire 1 O# Cout $end
$var wire 1 P# S $end
$upscope $end
$scope module fa11 $end
$var wire 1 Q# A $end
$var wire 1 R# B $end
$var wire 1 S# Cin $end
$var wire 1 T# Cout $end
$var wire 1 U# S $end
$upscope $end
$scope module fa12 $end
$var wire 1 V# A $end
$var wire 1 W# B $end
$var wire 1 X# Cin $end
$var wire 1 Y# Cout $end
$var wire 1 Z# S $end
$upscope $end
$scope module fa13 $end
$var wire 1 [# A $end
$var wire 1 \# B $end
$var wire 1 ]# Cin $end
$var wire 1 ^# Cout $end
$var wire 1 _# S $end
$upscope $end
$scope module fa14 $end
$var wire 1 `# A $end
$var wire 1 a# B $end
$var wire 1 b# Cin $end
$var wire 1 c# Cout $end
$var wire 1 d# S $end
$upscope $end
$scope module fa15 $end
$var wire 1 e# A $end
$var wire 1 f# B $end
$var wire 1 g# Cin $end
$var wire 1 h# Cout $end
$var wire 1 i# S $end
$upscope $end
$scope module fa16 $end
$var wire 1 j# A $end
$var wire 1 k# B $end
$var wire 1 l# Cin $end
$var wire 1 m# Cout $end
$var wire 1 n# S $end
$upscope $end
$scope module fa17 $end
$var wire 1 o# A $end
$var wire 1 p# B $end
$var wire 1 q# Cin $end
$var wire 1 r# Cout $end
$var wire 1 s# S $end
$upscope $end
$scope module fa18 $end
$var wire 1 t# A $end
$var wire 1 u# B $end
$var wire 1 v# Cin $end
$var wire 1 w# Cout $end
$var wire 1 x# S $end
$upscope $end
$scope module fa19 $end
$var wire 1 y# A $end
$var wire 1 z# B $end
$var wire 1 {# Cin $end
$var wire 1 |# Cout $end
$var wire 1 }# S $end
$upscope $end
$scope module fa2 $end
$var wire 1 ~# A $end
$var wire 1 !$ B $end
$var wire 1 "$ Cin $end
$var wire 1 #$ Cout $end
$var wire 1 $$ S $end
$upscope $end
$scope module fa20 $end
$var wire 1 %$ A $end
$var wire 1 &$ B $end
$var wire 1 '$ Cin $end
$var wire 1 ($ Cout $end
$var wire 1 )$ S $end
$upscope $end
$scope module fa21 $end
$var wire 1 *$ A $end
$var wire 1 +$ B $end
$var wire 1 ,$ Cin $end
$var wire 1 -$ Cout $end
$var wire 1 .$ S $end
$upscope $end
$scope module fa22 $end
$var wire 1 /$ A $end
$var wire 1 0$ B $end
$var wire 1 1$ Cin $end
$var wire 1 2$ Cout $end
$var wire 1 3$ S $end
$upscope $end
$scope module fa23 $end
$var wire 1 4$ A $end
$var wire 1 5$ B $end
$var wire 1 6$ Cin $end
$var wire 1 7$ Cout $end
$var wire 1 8$ S $end
$upscope $end
$scope module fa24 $end
$var wire 1 9$ A $end
$var wire 1 :$ B $end
$var wire 1 ;$ Cin $end
$var wire 1 <$ Cout $end
$var wire 1 =$ S $end
$upscope $end
$scope module fa25 $end
$var wire 1 >$ A $end
$var wire 1 ?$ B $end
$var wire 1 @$ Cin $end
$var wire 1 A$ Cout $end
$var wire 1 B$ S $end
$upscope $end
$scope module fa26 $end
$var wire 1 C$ A $end
$var wire 1 D$ B $end
$var wire 1 E$ Cin $end
$var wire 1 F$ Cout $end
$var wire 1 G$ S $end
$upscope $end
$scope module fa27 $end
$var wire 1 H$ A $end
$var wire 1 I$ B $end
$var wire 1 J$ Cin $end
$var wire 1 K$ Cout $end
$var wire 1 L$ S $end
$upscope $end
$scope module fa28 $end
$var wire 1 M$ A $end
$var wire 1 N$ B $end
$var wire 1 O$ Cin $end
$var wire 1 P$ Cout $end
$var wire 1 Q$ S $end
$upscope $end
$scope module fa29 $end
$var wire 1 R$ A $end
$var wire 1 S$ B $end
$var wire 1 T$ Cin $end
$var wire 1 U$ Cout $end
$var wire 1 V$ S $end
$upscope $end
$scope module fa3 $end
$var wire 1 W$ A $end
$var wire 1 X$ B $end
$var wire 1 Y$ Cin $end
$var wire 1 Z$ Cout $end
$var wire 1 [$ S $end
$upscope $end
$scope module fa30 $end
$var wire 1 \$ A $end
$var wire 1 ]$ B $end
$var wire 1 ^$ Cin $end
$var wire 1 _$ Cout $end
$var wire 1 `$ S $end
$upscope $end
$scope module fa31 $end
$var wire 1 a$ A $end
$var wire 1 b$ B $end
$var wire 1 c$ Cin $end
$var wire 1 @# Cout $end
$var wire 1 d$ S $end
$upscope $end
$scope module fa4 $end
$var wire 1 e$ A $end
$var wire 1 f$ B $end
$var wire 1 g$ Cin $end
$var wire 1 h$ Cout $end
$var wire 1 i$ S $end
$upscope $end
$scope module fa5 $end
$var wire 1 j$ A $end
$var wire 1 k$ B $end
$var wire 1 l$ Cin $end
$var wire 1 m$ Cout $end
$var wire 1 n$ S $end
$upscope $end
$scope module fa6 $end
$var wire 1 o$ A $end
$var wire 1 p$ B $end
$var wire 1 q$ Cin $end
$var wire 1 r$ Cout $end
$var wire 1 s$ S $end
$upscope $end
$scope module fa7 $end
$var wire 1 t$ A $end
$var wire 1 u$ B $end
$var wire 1 v$ Cin $end
$var wire 1 w$ Cout $end
$var wire 1 x$ S $end
$upscope $end
$scope module fa8 $end
$var wire 1 y$ A $end
$var wire 1 z$ B $end
$var wire 1 {$ Cin $end
$var wire 1 |$ Cout $end
$var wire 1 }$ S $end
$upscope $end
$scope module fa9 $end
$var wire 1 ~$ A $end
$var wire 1 !% B $end
$var wire 1 "% Cin $end
$var wire 1 #% Cout $end
$var wire 1 $% S $end
$upscope $end
$upscope $end
$upscope $end
$scope module cache_inst $end
$var wire 1 %% dependency_on_ins2 $end
$var wire 32 &% instruction0 [31:0] $end
$var wire 32 '% instruction1 [31:0] $end
$var wire 1 # rst $end
$var wire 1 6 freeze2 $end
$var wire 1 7 freeze1 $end
$var wire 1 5 clk $end
$var wire 1 (% busy $end
$var reg 32 )% PC [31:0] $end
$var reg 32 *% next_PC [31:0] $end
$var reg 1 1 nothing_filled $end
$var reg 1 +% second_half_cache_to_fill $end
$scope module wb_inst0 $end
$var wire 32 ,% addr [31:0] $end
$var wire 1 -% req $end
$var wire 1 .% rst_n $end
$var wire 32 /% wdata [31:0] $end
$var wire 1 0% we $end
$var wire 1 5 clk $end
$var parameter 32 1% DEPTH $end
$var parameter 32 2% LATENCY $end
$var parameter 184 3% MEM_FILE $end
$var reg 32 4% addr_reg [31:0] $end
$var reg 1 (% busy $end
$var reg 2 5% counter [1:0] $end
$var reg 1 6% pending $end
$var reg 32 7% rdata [31:0] $end
$var reg 1 8% valid $end
$upscope $end
$scope module wb_inst1 $end
$var wire 32 9% addr [31:0] $end
$var wire 1 :% req $end
$var wire 1 ;% rst_n $end
$var wire 32 <% wdata [31:0] $end
$var wire 1 =% we $end
$var wire 1 5 clk $end
$var parameter 32 >% DEPTH $end
$var parameter 32 ?% LATENCY $end
$var parameter 184 @% MEM_FILE $end
$var reg 32 A% addr_reg [31:0] $end
$var reg 1 B% busy $end
$var reg 2 C% counter [1:0] $end
$var reg 1 D% pending $end
$var reg 32 E% rdata [31:0] $end
$var reg 1 F% valid $end
$upscope $end
$scope module wb_inst2 $end
$var wire 32 G% addr [31:0] $end
$var wire 1 H% req $end
$var wire 1 I% rst_n $end
$var wire 32 J% wdata [31:0] $end
$var wire 1 K% we $end
$var wire 1 5 clk $end
$var parameter 32 L% DEPTH $end
$var parameter 32 M% LATENCY $end
$var parameter 184 N% MEM_FILE $end
$var reg 32 O% addr_reg [31:0] $end
$var reg 1 P% busy $end
$var reg 2 Q% counter [1:0] $end
$var reg 1 R% pending $end
$var reg 32 S% rdata [31:0] $end
$var reg 1 T% valid $end
$upscope $end
$scope module wb_inst3 $end
$var wire 32 U% addr [31:0] $end
$var wire 1 V% req $end
$var wire 1 W% rst_n $end
$var wire 32 X% wdata [31:0] $end
$var wire 1 Y% we $end
$var wire 1 5 clk $end
$var parameter 32 Z% DEPTH $end
$var parameter 32 [% LATENCY $end
$var parameter 184 \% MEM_FILE $end
$var reg 32 ]% addr_reg [31:0] $end
$var reg 1 ^% busy $end
$var reg 2 _% counter [1:0] $end
$var reg 1 `% pending $end
$var reg 32 a% rdata [31:0] $end
$var reg 1 b% valid $end
$upscope $end
$scope module wb_inst4 $end
$var wire 32 c% addr [31:0] $end
$var wire 1 d% req $end
$var wire 1 e% rst_n $end
$var wire 32 f% wdata [31:0] $end
$var wire 1 g% we $end
$var wire 1 5 clk $end
$var parameter 32 h% DEPTH $end
$var parameter 32 i% LATENCY $end
$var parameter 184 j% MEM_FILE $end
$var reg 32 k% addr_reg [31:0] $end
$var reg 1 l% busy $end
$var reg 2 m% counter [1:0] $end
$var reg 1 n% pending $end
$var reg 32 o% rdata [31:0] $end
$var reg 1 p% valid $end
$upscope $end
$scope module wb_inst5 $end
$var wire 32 q% addr [31:0] $end
$var wire 1 r% req $end
$var wire 1 s% rst_n $end
$var wire 32 t% wdata [31:0] $end
$var wire 1 u% we $end
$var wire 1 5 clk $end
$var parameter 32 v% DEPTH $end
$var parameter 32 w% LATENCY $end
$var parameter 184 x% MEM_FILE $end
$var reg 32 y% addr_reg [31:0] $end
$var reg 1 z% busy $end
$var reg 2 {% counter [1:0] $end
$var reg 1 |% pending $end
$var reg 32 }% rdata [31:0] $end
$var reg 1 ~% valid $end
$upscope $end
$scope begin $ivl_for_loop0 $end
$var integer 32 !& i [31:0] $end
$upscope $end
$scope begin $ivl_for_loop1 $end
$var integer 32 "& i [31:0] $end
$upscope $end
$scope begin $ivl_for_loop2 $end
$var integer 32 #& i [31:0] $end
$upscope $end
$upscope $end
$scope module clk_divider $end
$var wire 1 " clk $end
$var wire 1 # rst $end
$var reg 32 $& counter [31:0] $end
$var reg 1 5 new_clk $end
$upscope $end
$scope module reg_file_inst $end
$var wire 1 " clk $end
$var wire 32 %& read_data1 [31:0] $end
$var wire 32 && read_data2 [31:0] $end
$var wire 32 '& read_data3 [31:0] $end
$var wire 32 (& read_data4 [31:0] $end
$var wire 1 )& reg_write $end
$var wire 1 *& reg_write2 $end
$var wire 1 # rst $end
$var wire 32 +& write_data [31:0] $end
$var wire 32 ,& write_data2 [31:0] $end
$var wire 5 -& regd2 [4:0] $end
$var wire 5 .& regd [4:0] $end
$var wire 5 /& reg4 [4:0] $end
$var wire 5 0& reg3 [4:0] $end
$var wire 5 1& reg2 [4:0] $end
$var wire 5 2& reg1 [4:0] $end
$scope begin $ivl_for_loop3 $end
$var integer 32 3& i [31:0] $end
$upscope $end
$upscope $end
$scope module sched_assist_inst $end
$var wire 1 5 clk $end
$var wire 32 4& instruction0 [31:0] $end
$var wire 32 5& instruction1 [31:0] $end
$var wire 1 1 nothing_filled $end
$var wire 1 # rst $end
$var wire 5 6& reg4 [4:0] $end
$var wire 5 7& reg3 [4:0] $end
$var wire 5 8& reg2 [4:0] $end
$var wire 5 9& reg1 [4:0] $end
$var wire 5 :& RegD2 [4:0] $end
$var wire 5 ;& RegD1 [4:0] $end
$var wire 32 <& Imm2 [31:0] $end
$var wire 32 =& Imm1 [31:0] $end
$var wire 1 = ALUSrc2 $end
$var wire 1 > ALUSrc1 $end
$var reg 1 : datapath_1_enable $end
$var reg 1 9 datapath_2_enable $end
$var reg 1 >& dep_detected $end
$var reg 2 ?& dep_timer [1:0] $end
$var reg 1 8 dependency_on_ins2 $end
$var reg 1 7 freeze1 $end
$var reg 1 @& freeze1_next $end
$var reg 1 6 freeze2 $end
$var reg 1 A& freeze2_next $end
$var reg 32 B& ins0 [31:0] $end
$var reg 32 C& ins1 [31:0] $end
$scope module cu1 $end
$var wire 7 D& i [6:0] $end
$var wire 32 E& instruction [31:0] $end
$var wire 7 F& l [6:0] $end
$var wire 7 G& r [6:0] $end
$var wire 7 H& s [6:0] $end
$var wire 7 I& opcode [6:0] $end
$var wire 5 J& RegD [4:0] $end
$var wire 5 K& Reg2 [4:0] $end
$var wire 5 L& Reg1 [4:0] $end
$var reg 1 > ALUSrc $end
$var reg 32 M& Imm [31:0] $end
$upscope $end
$scope module cu2 $end
$var wire 7 N& i [6:0] $end
$var wire 32 O& instruction [31:0] $end
$var wire 7 P& l [6:0] $end
$var wire 7 Q& r [6:0] $end
$var wire 7 R& s [6:0] $end
$var wire 7 S& opcode [6:0] $end
$var wire 5 T& RegD [4:0] $end
$var wire 5 U& Reg2 [4:0] $end
$var wire 5 V& Reg1 [4:0] $end
$var reg 1 = ALUSrc $end
$var reg 32 W& Imm [31:0] $end
$upscope $end
$upscope $end
$upscope $end
$upscope $end
$enddefinitions $end
$comment Show the parameter values. $end
$dumpall
b110100101101110011100110111010001110010011101010110001101110100011010010110111101101110010111110110110101100101011011010110111101110010011110010010111001101101011001010110110101101000 x%
b11 w%
b10000000000 v%
b110100101101110011100110111010001110010011101010110001101110100011010010110111101101110010111110110110101100101011011010110111101110010011110010010111001101101011001010110110101101000 j%
b11 i%
b10000000000 h%
b110100101101110011100110111010001110010011101010110001101110100011010010110111101101110010111110110110101100101011011010110111101110010011110010010111001101101011001010110110101101000 \%
b11 [%
b10000000000 Z%
b110100101101110011100110111010001110010011101010110001101110100011010010110111101101110010111110110110101100101011011010110111101110010011110010010111001101101011001010110110101101000 N%
b11 M%
b10000000000 L%
b110100101101110011100110111010001110010011101010110001101110100011010010110111101101110010111110110110101100101011011010110111101110010011110010010111001101101011001010110110101101000 @%
b11 ?%
b10000000000 >%
b110100101101110011100110111010001110010011101010110001101110100011010010110111101101110010111110110110101100101011011010110111101110010011110010010111001101101011001010110110101101000 3%
b11 2%
b10000000000 1%
$end
#0
$dumpvars
b0 W&
b0 V&
b0 U&
b0 T&
b0 S&
b100011 R&
b110011 Q&
b11 P&
b0 O&
b10011 N&
b0 M&
b0 L&
b0 K&
b0 J&
b0 I&
b100011 H&
b110011 G&
b11 F&
b0 E&
b10011 D&
b0 C&
b0 B&
1A&
1@&
b0 ?&
0>&
b0 =&
b0 <&
b0 ;&
b0 :&
b0 9&
b0 8&
b0 7&
b0 6&
b0 5&
b0 4&
b100000 3&
b0 2&
b0 1&
b0 0&
b0 /&
b0 .&
b0 -&
b0 ,&
b0 +&
0*&
0)&
b0 (&
b0 '&
b0 &&
b0 %&
b0 $&
b0 #&
b1100 "&
b110 !&
0~%
b0 }%
0|%
b0 {%
0z%
bx y%
0u%
b0 t%
0s%
1r%
b10100 q%
0p%
b0 o%
0n%
b0 m%
0l%
bx k%
0g%
b0 f%
0e%
1d%
b10000 c%
0b%
b0 a%
0`%
b0 _%
0^%
bx ]%
0Y%
b0 X%
0W%
1V%
b1100 U%
0T%
b0 S%
0R%
b0 Q%
0P%
bx O%
0K%
b0 J%
0I%
1H%
b1000 G%
0F%
b0 E%
0D%
b0 C%
0B%
bx A%
0=%
b0 <%
0;%
1:%
b100 9%
08%
b0 7%
06%
b0 5%
bx 4%
00%
b0 /%
0.%
1-%
b0 ,%
0+%
b110 *%
b0 )%
0(%
b0 '%
b0 &%
0%%
0$%
1#%
1"%
1!%
0~$
0}$
1|$
1{$
1z$
0y$
0x$
1w$
1v$
1u$
0t$
0s$
1r$
1q$
1p$
0o$
0n$
1m$
1l$
1k$
0j$
0i$
1h$
1g$
1f$
0e$
0d$
1c$
1b$
0a$
0`$
1_$
1^$
1]$
0\$
0[$
1Z$
1Y$
1X$
0W$
0V$
1U$
1T$
1S$
0R$
0Q$
1P$
1O$
1N$
0M$
0L$
1K$
1J$
1I$
0H$
0G$
1F$
1E$
1D$
0C$
0B$
1A$
1@$
1?$
0>$
0=$
1<$
1;$
1:$
09$
08$
17$
16$
15$
04$
03$
12$
11$
10$
0/$
0.$
1-$
1,$
1+$
0*$
0)$
1($
1'$
1&$
0%$
0$$
1#$
1"$
1!$
0~#
0}#
1|#
1{#
1z#
0y#
0x#
1w#
1v#
1u#
0t#
0s#
1r#
1q#
1p#
0o#
0n#
1m#
1l#
1k#
0j#
0i#
1h#
1g#
1f#
0e#
0d#
1c#
1b#
1a#
0`#
0_#
1^#
1]#
1\#
0[#
0Z#
1Y#
1X#
1W#
0V#
0U#
1T#
1S#
1R#
0Q#
0P#
1O#
1N#
1M#
0L#
0K#
1J#
1I#
1H#
0G#
0F#
1E#
1D#
0C#
b0 B#
b1111111111111111111111111111111 A#
1@#
b0 ?#
1>#
b11111111111111111111111111111111 =#
b0 <#
b0 ;#
b0 :#
b0 9#
b0 8#
b0 7#
b0 6#
b0 5#
b0 4#
03#
02#
11#
10#
1/#
0.#
0-#
1,#
1+#
1*#
0)#
0(#
1'#
1&#
1%#
0$#
0##
1"#
1!#
1~"
0}"
0|"
1{"
1z"
1y"
0x"
0w"
1v"
1u"
1t"
0s"
0r"
1q"
1p"
0o"
0n"
1m"
1l"
1k"
0j"
0i"
1h"
1g"
1f"
0e"
0d"
1c"
1b"
1a"
0`"
0_"
1^"
1]"
1\"
0["
0Z"
1Y"
1X"
1W"
0V"
0U"
1T"
1S"
1R"
0Q"
0P"
1O"
1N"
1M"
0L"
0K"
1J"
1I"
1H"
0G"
0F"
1E"
1D"
1C"
0B"
0A"
1@"
1?"
1>"
0="
0<"
1;"
1:"
19"
08"
07"
16"
15"
14"
03"
02"
11"
10"
1/"
0."
0-"
1,"
1+"
1*"
0)"
0("
1'"
1&"
1%"
0$"
0#"
1""
1!"
1~
0}
0|
1{
1z
1y
0x
0w
1v
1u
1t
0s
0r
1q
1p
1o
0n
0m
1l
1k
1j
0i
0h
1g
1f
1e
0d
0c
1b
1a
1`
0_
0^
1]
1\
1[
0Z
0Y
1X
1W
1V
0U
0T
1S
1R
0Q
b0 P
b1111111111111111111111111111111 O
1N
b0 M
1L
b11111111111111111111111111111111 K
b0 J
b0 I
b0 H
b0 G
b0 F
b0 E
b0 D
b0 C
b0 B
0A
b0 @
b0 ?
0>
0=
b0 <
b0 ;
0:
09
08
07
06
05
b0 4
b0 3
b0 2
11
b0 0
b0 /
b0 .
b0 -
b0 ,
b0 +
b0 *
b0 )
b0 (
b0 '
b0 &
b0 %
z$
1#
0"
b0 !
$end
#1000
b100000 3&
1"
#2000
0"
#3000
b100000 3&
1"
#4000
0"
#5000
b100000 3&
1"
#6000
0"
#7000
b100000 3&
1"
#8000
0"
#9000
b100000 3&
1"
#10000
0"
#11000
b100000 3&
1"
#12000
0"
#13000
b100000 3&
1"
#14000
0"
#15000
b100000 3&
1"
#16000
0"
#17000
b100000 3&
1"
#18000
0"
#19000
b100000 3&
1"
#20000
1.%
1;%
1I%
1W%
1e%
1s%
0"
0#
#21000
b1 $&
1"
#22000
0"
#23000
b1100 *%
16
17
b1010 9%
b1110 G%
b10010 U%
b10110 c%
b11010 q%
b110 )%
b110 ,%
b0 4%
b10 5%
1(%
16%
b100 A%
b10 C%
1B%
1D%
b1000 O%
b10 Q%
1P%
1R%
b1100 ]%
b10 _%
1^%
1`%
b10000 k%
b10 m%
1l%
1n%
b10100 y%
b10 {%
1z%
1|%
b110 #&
b0 $&
b10000000 !
b10000000 2
15
1"
#24000
0"
#25000
b1 $&
1"
#26000
0"
#27000
b0 $&
b0 !
b0 2
05
1"
#28000
0"
#29000
b1 $&
1"
#30000
0"
#31000
b10010 *%
b10000 9%
b10100 G%
b11000 U%
b11100 c%
b100000 q%
b1100 )%
b1100 ,%
b1 5%
b1 C%
b1 Q%
b1 _%
b1 m%
b1 {%
b110 #&
b0 $&
b10000000 !
b10000000 2
15
1"
#32000
0"
#33000
b1 $&
1"
#34000
0"
#35000
b0 $&
b0 !
b0 2
05
1"
#36000
0"
#37000
b1 $&
1"
#38000
0"
#39000
b11000 *%
b10110 9%
b11010 G%
b11110 U%
b100010 c%
b100110 q%
b10010 )%
b10010 ,%
b0 5%
b0 C%
b0 Q%
b0 _%
b0 m%
b0 {%
b110 #&
b0 $&
b10000000 !
b10000000 2
15
1"
#40000
0"
#41000
b1 $&
1"
#42000
0"
#43000
b0 $&
b0 !
b0 2
05
1"
#44000
0"
#45000
b1 $&
1"
#46000
0"
#47000
1*&
1)&
0A&
0@&
01
19
1:
b11110 *%
b100001000000010010011 &
b100001000000010010011 '%
b100001000000010010011 5&
b100001000000010010011 %
b100001000000010010011 &%
b100001000000010010011 4&
b11100 9%
b100000 G%
b100100 U%
b101000 c%
b101100 q%
b11000 )%
b11000 ,%
18%
b100001000000010010011 7%
0(%
06%
1F%
b100001000000010010011 E%
0B%
0D%
1T%
b100001000000010010011 S%
0P%
0R%
1b%
b100001000000010010011 a%
0^%
0`%
1p%
b100001000000010010011 o%
0l%
0n%
1~%
b100001000000010010011 }%
0z%
0|%
b110 #&
b0 $&
b10010011 !
b10010011 2
15
1"
#48000
0"
#49000
b1 $&
1"
#50000
0"
#51000
b0 $&
b10011 !
b10011 2
05
1"
#52000
0"
#53000
b1 $&
1"
#54000
0"
#55000
b100110 *%
06
07
b100010 9%
b100110 G%
b101010 U%
b101110 c%
b110010 q%
b11110 )%
b11110 ,%
b11000 4%
b10 5%
1(%
16%
08%
b11100 A%
b10 C%
1B%
1D%
0F%
b100000 O%
b10 Q%
1P%
1R%
0T%
b100100 ]%
b10 _%
1^%
1`%
0b%
b101000 k%
b10 m%
1l%
1n%
0p%
b101100 y%
b10 {%
1z%
1|%
0~%
b110 #&
b0 $&
b10010011 !
b10010011 2
15
1"
#56000
0"
#57000
b1 $&
1"
#58000
0"
