waves/top.vcd
$date
	Fri Nov 28 19:33:19 2025
$end
$version
	Icarus Verilog
$end
$timescale
	1ps
$end
$scope module top_tb $end
$var wire 8 ! led [7:0] $end
$var reg 1 " clk $end
$var reg 1 # rst_pin $end
$scope module dut $end
$var wire 1 $ btn $end
$var wire 1 " clk $end
$var wire 32 % instruction0 [31:0] $end
$var wire 32 & instruction1 [31:0] $end
$var wire 1 # rst_pin $end
$var wire 5 ' reg4 [4:0] $end
$var wire 5 ( reg3 [4:0] $end
$var wire 5 ) reg2 [4:0] $end
$var wire 5 * reg1 [4:0] $end
$var wire 32 + read_data2_dp2 [31:0] $end
$var wire 32 , read_data2_dp1 [31:0] $end
$var wire 32 - read_data1_dp2 [31:0] $end
$var wire 32 . read_data1_dp1 [31:0] $end
$var wire 7 / opcode_2 [6:0] $end
$var wire 7 0 opcode_1 [6:0] $end
$var wire 1 1 nothing_filled $end
$var wire 1 2 n_rst $end
$var wire 8 3 led [7:0] $end
$var wire 32 4 imm2 [31:0] $end
$var wire 32 5 imm1 [31:0] $end
$var wire 1 6 hz1_clk $end
$var wire 1 7 freeze2 $end
$var wire 1 8 freeze1 $end
$var wire 1 9 dependency_on_ins2 $end
$var wire 1 : datapath_2_enable $end
$var wire 1 ; datapath_1_enable $end
$var wire 5 < RegD2 [4:0] $end
$var wire 5 = RegD1 [4:0] $end
$var wire 1 > J39_e11 $end
$var wire 1 ? J39_d15 $end
$var wire 1 @ J39_d12 $end
$var wire 1 A J39_d11 $end
$var wire 1 B J39_c15 $end
$var wire 1 C J39_b20 $end
$var wire 1 D J39_b15 $end
$var wire 1 E J39_b13 $end
$var wire 1 F J39_b12 $end
$var wire 1 G ALU_src2 $end
$var wire 1 H ALU_src1 $end
$var wire 32 I ALU_result2 [31:0] $end
$var wire 32 J ALU_result1 [31:0] $end
$var reg 1 K J39_a14 $end
$var reg 1 L J39_a9 $end
$var reg 1 M J39_b10 $end
$var reg 1 N J39_c12 $end
$var reg 1 O J39_c13 $end
$var reg 1 P J39_d13 $end
$var reg 1 Q J39_e12 $end
$var reg 1 R J39_e13 $end
$var reg 1 S J39_e7 $end
$var reg 1 T J40_a15 $end
$var reg 1 U J40_h2 $end
$var reg 1 V J40_j3 $end
$var reg 1 W J40_j4 $end
$var reg 1 X J40_j5 $end
$var reg 1 Y J40_k5 $end
$var reg 1 Z J40_l4 $end
$var reg 1 [ J40_m4 $end
$var reg 1 \ J40_n4 $end
$var reg 1 ] J40_p5 $end
$var reg 8 ^ led_sampled [7:0] $end
$scope module alu1 $end
$var wire 1 _ ALU_control $end
$var wire 32 ` instruction [31:0] $end
$var wire 7 a opcode_out [6:0] $end
$var wire 32 b src_B [31:0] $end
$var wire 32 c sub_result [31:0] $end
$var wire 32 d src_A [31:0] $end
$var wire 7 e opcode [6:0] $end
$var wire 7 f funct7 [6:0] $end
$var wire 3 g funct3 [2:0] $end
$var reg 32 h ALU_result [31:0] $end
$scope module subtractor $end
$var wire 32 i B [31:0] $end
$var wire 1 j Cin $end
$var wire 32 k S [31:0] $end
$var wire 1 l Cout $end
$var wire 31 m C [30:0] $end
$var wire 32 n A [31:0] $end
$scope module fa0 $end
$var wire 1 o A $end
$var wire 1 p B $end
$var wire 1 j Cin $end
$var wire 1 q Cout $end
$var wire 1 r S $end
$upscope $end
$scope module fa1 $end
$var wire 1 s A $end
$var wire 1 t B $end
$var wire 1 u Cin $end
$var wire 1 v Cout $end
$var wire 1 w S $end
$upscope $end
$scope module fa10 $end
$var wire 1 x A $end
$var wire 1 y B $end
$var wire 1 z Cin $end
$var wire 1 { Cout $end
$var wire 1 | S $end
$upscope $end
$scope module fa11 $end
$var wire 1 } A $end
$var wire 1 ~ B $end
$var wire 1 !" Cin $end
$var wire 1 "" Cout $end
$var wire 1 #" S $end
$upscope $end
$scope module fa12 $end
$var wire 1 $" A $end
$var wire 1 %" B $end
$var wire 1 &" Cin $end
$var wire 1 '" Cout $end
$var wire 1 (" S $end
$upscope $end
$scope module fa13 $end
$var wire 1 )" A $end
$var wire 1 *" B $end
$var wire 1 +" Cin $end
$var wire 1 ," Cout $end
$var wire 1 -" S $end
$upscope $end
$scope module fa14 $end
$var wire 1 ." A $end
$var wire 1 /" B $end
$var wire 1 0" Cin $end
$var wire 1 1" Cout $end
$var wire 1 2" S $end
$upscope $end
$scope module fa15 $end
$var wire 1 3" A $end
$var wire 1 4" B $end
$var wire 1 5" Cin $end
$var wire 1 6" Cout $end
$var wire 1 7" S $end
$upscope $end
$scope module fa16 $end
$var wire 1 8" A $end
$var wire 1 9" B $end
$var wire 1 :" Cin $end
$var wire 1 ;" Cout $end
$var wire 1 <" S $end
$upscope $end
$scope module fa17 $end
$var wire 1 =" A $end
$var wire 1 >" B $end
$var wire 1 ?" Cin $end
$var wire 1 @" Cout $end
$var wire 1 A" S $end
$upscope $end
$scope module fa18 $end
$var wire 1 B" A $end
$var wire 1 C" B $end
$var wire 1 D" Cin $end
$var wire 1 E" Cout $end
$var wire 1 F" S $end
$upscope $end
$scope module fa19 $end
$var wire 1 G" A $end
$var wire 1 H" B $end
$var wire 1 I" Cin $end
$var wire 1 J" Cout $end
$var wire 1 K" S $end
$upscope $end
$scope module fa2 $end
$var wire 1 L" A $end
$var wire 1 M" B $end
$var wire 1 N" Cin $end
$var wire 1 O" Cout $end
$var wire 1 P" S $end
$upscope $end
$scope module fa20 $end
$var wire 1 Q" A $end
$var wire 1 R" B $end
$var wire 1 S" Cin $end
$var wire 1 T" Cout $end
$var wire 1 U" S $end
$upscope $end
$scope module fa21 $end
$var wire 1 V" A $end
$var wire 1 W" B $end
$var wire 1 X" Cin $end
$var wire 1 Y" Cout $end
$var wire 1 Z" S $end
$upscope $end
$scope module fa22 $end
$var wire 1 [" A $end
$var wire 1 \" B $end
$var wire 1 ]" Cin $end
$var wire 1 ^" Cout $end
$var wire 1 _" S $end
$upscope $end
$scope module fa23 $end
$var wire 1 `" A $end
$var wire 1 a" B $end
$var wire 1 b" Cin $end
$var wire 1 c" Cout $end
$var wire 1 d" S $end
$upscope $end
$scope module fa24 $end
$var wire 1 e" A $end
$var wire 1 f" B $end
$var wire 1 g" Cin $end
$var wire 1 h" Cout $end
$var wire 1 i" S $end
$upscope $end
$scope module fa25 $end
$var wire 1 j" A $end
$var wire 1 k" B $end
$var wire 1 l" Cin $end
$var wire 1 m" Cout $end
$var wire 1 n" S $end
$upscope $end
$scope module fa26 $end
$var wire 1 o" A $end
$var wire 1 p" B $end
$var wire 1 q" Cin $end
$var wire 1 r" Cout $end
$var wire 1 s" S $end
$upscope $end
$scope module fa27 $end
$var wire 1 t" A $end
$var wire 1 u" B $end
$var wire 1 v" Cin $end
$var wire 1 w" Cout $end
$var wire 1 x" S $end
$upscope $end
$scope module fa28 $end
$var wire 1 y" A $end
$var wire 1 z" B $end
$var wire 1 {" Cin $end
$var wire 1 |" Cout $end
$var wire 1 }" S $end
$upscope $end
$scope module fa29 $end
$var wire 1 ~" A $end
$var wire 1 !# B $end
$var wire 1 "# Cin $end
$var wire 1 ## Cout $end
$var wire 1 $# S $end
$upscope $end
$scope module fa3 $end
$var wire 1 %# A $end
$var wire 1 &# B $end
$var wire 1 '# Cin $end
$var wire 1 (# Cout $end
$var wire 1 )# S $end
$upscope $end
$scope module fa30 $end
$var wire 1 *# A $end
$var wire 1 +# B $end
$var wire 1 ,# Cin $end
$var wire 1 -# Cout $end
$var wire 1 .# S $end
$upscope $end
$scope module fa31 $end
$var wire 1 /# A $end
$var wire 1 0# B $end
$var wire 1 1# Cin $end
$var wire 1 l Cout $end
$var wire 1 2# S $end
$upscope $end
$scope module fa4 $end
$var wire 1 3# A $end
$var wire 1 4# B $end
$var wire 1 5# Cin $end
$var wire 1 6# Cout $end
$var wire 1 7# S $end
$upscope $end
$scope module fa5 $end
$var wire 1 8# A $end
$var wire 1 9# B $end
$var wire 1 :# Cin $end
$var wire 1 ;# Cout $end
$var wire 1 <# S $end
$upscope $end
$scope module fa6 $end
$var wire 1 =# A $end
$var wire 1 ># B $end
$var wire 1 ?# Cin $end
$var wire 1 @# Cout $end
$var wire 1 A# S $end
$upscope $end
$scope module fa7 $end
$var wire 1 B# A $end
$var wire 1 C# B $end
$var wire 1 D# Cin $end
$var wire 1 E# Cout $end
$var wire 1 F# S $end
$upscope $end
$scope module fa8 $end
$var wire 1 G# A $end
$var wire 1 H# B $end
$var wire 1 I# Cin $end
$var wire 1 J# Cout $end
$var wire 1 K# S $end
$upscope $end
$scope module fa9 $end
$var wire 1 L# A $end
$var wire 1 M# B $end
$var wire 1 N# Cin $end
$var wire 1 O# Cout $end
$var wire 1 P# S $end
$upscope $end
$upscope $end
$upscope $end
$scope module alu2 $end
$var wire 1 Q# ALU_control $end
$var wire 32 R# instruction [31:0] $end
$var wire 7 S# opcode_out [6:0] $end
$var wire 32 T# src_B [31:0] $end
$var wire 32 U# sub_result [31:0] $end
$var wire 32 V# src_A [31:0] $end
$var wire 7 W# opcode [6:0] $end
$var wire 7 X# funct7 [6:0] $end
$var wire 3 Y# funct3 [2:0] $end
$var reg 32 Z# ALU_result [31:0] $end
$scope module subtractor $end
$var wire 32 [# B [31:0] $end
$var wire 1 \# Cin $end
$var wire 32 ]# S [31:0] $end
$var wire 1 ^# Cout $end
$var wire 31 _# C [30:0] $end
$var wire 32 `# A [31:0] $end
$scope module fa0 $end
$var wire 1 a# A $end
$var wire 1 b# B $end
$var wire 1 \# Cin $end
$var wire 1 c# Cout $end
$var wire 1 d# S $end
$upscope $end
$scope module fa1 $end
$var wire 1 e# A $end
$var wire 1 f# B $end
$var wire 1 g# Cin $end
$var wire 1 h# Cout $end
$var wire 1 i# S $end
$upscope $end
$scope module fa10 $end
$var wire 1 j# A $end
$var wire 1 k# B $end
$var wire 1 l# Cin $end
$var wire 1 m# Cout $end
$var wire 1 n# S $end
$upscope $end
$scope module fa11 $end
$var wire 1 o# A $end
$var wire 1 p# B $end
$var wire 1 q# Cin $end
$var wire 1 r# Cout $end
$var wire 1 s# S $end
$upscope $end
$scope module fa12 $end
$var wire 1 t# A $end
$var wire 1 u# B $end
$var wire 1 v# Cin $end
$var wire 1 w# Cout $end
$var wire 1 x# S $end
$upscope $end
$scope module fa13 $end
$var wire 1 y# A $end
$var wire 1 z# B $end
$var wire 1 {# Cin $end
$var wire 1 |# Cout $end
$var wire 1 }# S $end
$upscope $end
$scope module fa14 $end
$var wire 1 ~# A $end
$var wire 1 !$ B $end
$var wire 1 "$ Cin $end
$var wire 1 #$ Cout $end
$var wire 1 $$ S $end
$upscope $end
$scope module fa15 $end
$var wire 1 %$ A $end
$var wire 1 &$ B $end
$var wire 1 '$ Cin $end
$var wire 1 ($ Cout $end
$var wire 1 )$ S $end
$upscope $end
$scope module fa16 $end
$var wire 1 *$ A $end
$var wire 1 +$ B $end
$var wire 1 ,$ Cin $end
$var wire 1 -$ Cout $end
$var wire 1 .$ S $end
$upscope $end
$scope module fa17 $end
$var wire 1 /$ A $end
$var wire 1 0$ B $end
$var wire 1 1$ Cin $end
$var wire 1 2$ Cout $end
$var wire 1 3$ S $end
$upscope $end
$scope module fa18 $end
$var wire 1 4$ A $end
$var wire 1 5$ B $end
$var wire 1 6$ Cin $end
$var wire 1 7$ Cout $end
$var wire 1 8$ S $end
$upscope $end
$scope module fa19 $end
$var wire 1 9$ A $end
$var wire 1 :$ B $end
$var wire 1 ;$ Cin $end
$var wire 1 <$ Cout $end
$var wire 1 =$ S $end
$upscope $end
$scope module fa2 $end
$var wire 1 >$ A $end
$var wire 1 ?$ B $end
$var wire 1 @$ Cin $end
$var wire 1 A$ Cout $end
$var wire 1 B$ S $end
$upscope $end
$scope module fa20 $end
$var wire 1 C$ A $end
$var wire 1 D$ B $end
$var wire 1 E$ Cin $end
$var wire 1 F$ Cout $end
$var wire 1 G$ S $end
$upscope $end
$scope module fa21 $end
$var wire 1 H$ A $end
$var wire 1 I$ B $end
$var wire 1 J$ Cin $end
$var wire 1 K$ Cout $end
$var wire 1 L$ S $end
$upscope $end
$scope module fa22 $end
$var wire 1 M$ A $end
$var wire 1 N$ B $end
$var wire 1 O$ Cin $end
$var wire 1 P$ Cout $end
$var wire 1 Q$ S $end
$upscope $end
$scope module fa23 $end
$var wire 1 R$ A $end
$var wire 1 S$ B $end
$var wire 1 T$ Cin $end
$var wire 1 U$ Cout $end
$var wire 1 V$ S $end
$upscope $end
$scope module fa24 $end
$var wire 1 W$ A $end
$var wire 1 X$ B $end
$var wire 1 Y$ Cin $end
$var wire 1 Z$ Cout $end
$var wire 1 [$ S $end
$upscope $end
$scope module fa25 $end
$var wire 1 \$ A $end
$var wire 1 ]$ B $end
$var wire 1 ^$ Cin $end
$var wire 1 _$ Cout $end
$var wire 1 `$ S $end
$upscope $end
$scope module fa26 $end
$var wire 1 a$ A $end
$var wire 1 b$ B $end
$var wire 1 c$ Cin $end
$var wire 1 d$ Cout $end
$var wire 1 e$ S $end
$upscope $end
$scope module fa27 $end
$var wire 1 f$ A $end
$var wire 1 g$ B $end
$var wire 1 h$ Cin $end
$var wire 1 i$ Cout $end
$var wire 1 j$ S $end
$upscope $end
$scope module fa28 $end
$var wire 1 k$ A $end
$var wire 1 l$ B $end
$var wire 1 m$ Cin $end
$var wire 1 n$ Cout $end
$var wire 1 o$ S $end
$upscope $end
$scope module fa29 $end
$var wire 1 p$ A $end
$var wire 1 q$ B $end
$var wire 1 r$ Cin $end
$var wire 1 s$ Cout $end
$var wire 1 t$ S $end
$upscope $end
$scope module fa3 $end
$var wire 1 u$ A $end
$var wire 1 v$ B $end
$var wire 1 w$ Cin $end
$var wire 1 x$ Cout $end
$var wire 1 y$ S $end
$upscope $end
$scope module fa30 $end
$var wire 1 z$ A $end
$var wire 1 {$ B $end
$var wire 1 |$ Cin $end
$var wire 1 }$ Cout $end
$var wire 1 ~$ S $end
$upscope $end
$scope module fa31 $end
$var wire 1 !% A $end
$var wire 1 "% B $end
$var wire 1 #% Cin $end
$var wire 1 ^# Cout $end
$var wire 1 $% S $end
$upscope $end
$scope module fa4 $end
$var wire 1 %% A $end
$var wire 1 &% B $end
$var wire 1 '% Cin $end
$var wire 1 (% Cout $end
$var wire 1 )% S $end
$upscope $end
$scope module fa5 $end
$var wire 1 *% A $end
$var wire 1 +% B $end
$var wire 1 ,% Cin $end
$var wire 1 -% Cout $end
$var wire 1 .% S $end
$upscope $end
$scope module fa6 $end
$var wire 1 /% A $end
$var wire 1 0% B $end
$var wire 1 1% Cin $end
$var wire 1 2% Cout $end
$var wire 1 3% S $end
$upscope $end
$scope module fa7 $end
$var wire 1 4% A $end
$var wire 1 5% B $end
$var wire 1 6% Cin $end
$var wire 1 7% Cout $end
$var wire 1 8% S $end
$upscope $end
$scope module fa8 $end
$var wire 1 9% A $end
$var wire 1 :% B $end
$var wire 1 ;% Cin $end
$var wire 1 <% Cout $end
$var wire 1 =% S $end
$upscope $end
$scope module fa9 $end
$var wire 1 >% A $end
$var wire 1 ?% B $end
$var wire 1 @% Cin $end
$var wire 1 A% Cout $end
$var wire 1 B% S $end
$upscope $end
$upscope $end
$upscope $end
$scope module cache_inst $end
$var wire 1 C% dependency_on_ins2 $end
$var wire 32 D% instruction0 [31:0] $end
$var wire 32 E% instruction1 [31:0] $end
$var wire 1 2 n_rst $end
$var wire 1 7 freeze2 $end
$var wire 1 8 freeze1 $end
$var wire 1 6 clk $end
$var wire 1 F% busy $end
$var reg 32 G% PC [31:0] $end
$var reg 32 H% next_PC [31:0] $end
$var reg 1 1 nothing_filled $end
$var reg 1 I% second_half_cache_to_fill $end
$scope module wb_inst0 $end
$var wire 32 J% addr [31:0] $end
$var wire 1 K% req $end
$var wire 1 L% rst_n $end
$var wire 32 M% wdata [31:0] $end
$var wire 1 N% we $end
$var wire 1 6 clk $end
$var parameter 32 O% DEPTH $end
$var parameter 32 P% LATENCY $end
$var parameter 184 Q% MEM_FILE $end
$var reg 32 R% addr_reg [31:0] $end
$var reg 1 F% busy $end
$var reg 2 S% counter [1:0] $end
$var reg 1 T% pending $end
$var reg 32 U% rdata [31:0] $end
$var reg 1 V% valid $end
$upscope $end
$scope module wb_inst1 $end
$var wire 32 W% addr [31:0] $end
$var wire 1 X% req $end
$var wire 1 Y% rst_n $end
$var wire 32 Z% wdata [31:0] $end
$var wire 1 [% we $end
$var wire 1 6 clk $end
$var parameter 32 \% DEPTH $end
$var parameter 32 ]% LATENCY $end
$var parameter 184 ^% MEM_FILE $end
$var reg 32 _% addr_reg [31:0] $end
$var reg 1 `% busy $end
$var reg 2 a% counter [1:0] $end
$var reg 1 b% pending $end
$var reg 32 c% rdata [31:0] $end
$var reg 1 d% valid $end
$upscope $end
$scope module wb_inst2 $end
$var wire 32 e% addr [31:0] $end
$var wire 1 f% req $end
$var wire 1 g% rst_n $end
$var wire 32 h% wdata [31:0] $end
$var wire 1 i% we $end
$var wire 1 6 clk $end
$var parameter 32 j% DEPTH $end
$var parameter 32 k% LATENCY $end
$var parameter 184 l% MEM_FILE $end
$var reg 32 m% addr_reg [31:0] $end
$var reg 1 n% busy $end
$var reg 2 o% counter [1:0] $end
$var reg 1 p% pending $end
$var reg 32 q% rdata [31:0] $end
$var reg 1 r% valid $end
$upscope $end
$scope module wb_inst3 $end
$var wire 32 s% addr [31:0] $end
$var wire 1 t% req $end
$var wire 1 u% rst_n $end
$var wire 32 v% wdata [31:0] $end
$var wire 1 w% we $end
$var wire 1 6 clk $end
$var parameter 32 x% DEPTH $end
$var parameter 32 y% LATENCY $end
$var parameter 184 z% MEM_FILE $end
$var reg 32 {% addr_reg [31:0] $end
$var reg 1 |% busy $end
$var reg 2 }% counter [1:0] $end
$var reg 1 ~% pending $end
$var reg 32 !& rdata [31:0] $end
$var reg 1 "& valid $end
$upscope $end
$scope module wb_inst4 $end
$var wire 32 #& addr [31:0] $end
$var wire 1 $& req $end
$var wire 1 %& rst_n $end
$var wire 32 && wdata [31:0] $end
$var wire 1 '& we $end
$var wire 1 6 clk $end
$var parameter 32 (& DEPTH $end
$var parameter 32 )& LATENCY $end
$var parameter 184 *& MEM_FILE $end
$var reg 32 +& addr_reg [31:0] $end
$var reg 1 ,& busy $end
$var reg 2 -& counter [1:0] $end
$var reg 1 .& pending $end
$var reg 32 /& rdata [31:0] $end
$var reg 1 0& valid $end
$upscope $end
$scope module wb_inst5 $end
$var wire 32 1& addr [31:0] $end
$var wire 1 2& req $end
$var wire 1 3& rst_n $end
$var wire 32 4& wdata [31:0] $end
$var wire 1 5& we $end
$var wire 1 6 clk $end
$var parameter 32 6& DEPTH $end
$var parameter 32 7& LATENCY $end
$var parameter 184 8& MEM_FILE $end
$var reg 32 9& addr_reg [31:0] $end
$var reg 1 :& busy $end
$var reg 2 ;& counter [1:0] $end
$var reg 1 <& pending $end
$var reg 32 =& rdata [31:0] $end
$var reg 1 >& valid $end
$upscope $end
$scope begin $ivl_for_loop0 $end
$var integer 32 ?& i [31:0] $end
$upscope $end
$scope begin $ivl_for_loop1 $end
$var integer 32 @& i [31:0] $end
$upscope $end
$scope begin $ivl_for_loop2 $end
$var integer 32 A& i [31:0] $end
$upscope $end
$upscope $end
$scope module clk_divider_1HZ $end
$var wire 1 " clk $end
$var wire 32 B& div [31:0] $end
$var wire 1 2 n_rst $end
$var reg 32 C& counter [31:0] $end
$var reg 1 6 new_clk $end
$upscope $end
$scope module goon0 $end
$var wire 8 D& alu_result [7:0] $end
$var wire 1 " clk $end
$var wire 1 E& dp $end
$var parameter 32 F& DIVIDER $end
$var reg 17 G& counter [16:0] $end
$var reg 2 H& digit_en [1:0] $end
$var reg 4 I& ones [3:0] $end
$var reg 7 J& seg [6:0] $end
$var reg 1 K& sel $end
$var reg 4 L& tens [3:0] $end
$var reg 8 M& value_latched [7:0] $end
$scope function nibble_to_seg $end
$upscope $end
$upscope $end
$scope module reg_file_inst $end
$var wire 1 " clk $end
$var wire 32 N& read_data1 [31:0] $end
$var wire 32 O& read_data2 [31:0] $end
$var wire 32 P& read_data3 [31:0] $end
$var wire 32 Q& read_data4 [31:0] $end
$var wire 1 R& reg_write $end
$var wire 1 S& reg_write2 $end
$var wire 32 T& write_data [31:0] $end
$var wire 32 U& write_data2 [31:0] $end
$var wire 5 V& regd2 [4:0] $end
$var wire 5 W& regd [4:0] $end
$var wire 5 X& reg4 [4:0] $end
$var wire 5 Y& reg3 [4:0] $end
$var wire 5 Z& reg2 [4:0] $end
$var wire 5 [& reg1 [4:0] $end
$var wire 1 2 n_rst $end
$scope begin $ivl_for_loop3 $end
$var integer 32 \& i [31:0] $end
$upscope $end
$upscope $end
$scope module ros $end
$var wire 1 " clk $end
$var wire 1 # manual $end
$var wire 1 2 reset $end
$var reg 3 ]& startup [2:0] $end
$upscope $end
$scope module sched_assist_inst $end
$var wire 1 6 clk $end
$var wire 32 ^& instruction0 [31:0] $end
$var wire 32 _& instruction1 [31:0] $end
$var wire 1 2 n_rst $end
$var wire 1 1 nothing_filled $end
$var wire 5 `& reg4 [4:0] $end
$var wire 5 a& reg3 [4:0] $end
$var wire 5 b& reg2 [4:0] $end
$var wire 5 c& reg1 [4:0] $end
$var wire 5 d& RegD2 [4:0] $end
$var wire 5 e& RegD1 [4:0] $end
$var wire 32 f& Imm2 [31:0] $end
$var wire 32 g& Imm1 [31:0] $end
$var wire 1 G ALUSrc2 $end
$var wire 1 H ALUSrc1 $end
$var reg 1 ; datapath_1_enable $end
$var reg 1 : datapath_2_enable $end
$var reg 1 h& dep_detected $end
$var reg 2 i& dep_timer [1:0] $end
$var reg 1 9 dependency_on_ins2 $end
$var reg 1 8 freeze1 $end
$var reg 1 j& freeze1_next $end
$var reg 1 7 freeze2 $end
$var reg 1 k& freeze2_next $end
$var reg 32 l& ins0 [31:0] $end
$var reg 32 m& ins1 [31:0] $end
$scope module cu1 $end
$var wire 7 n& i [6:0] $end
$var wire 32 o& instruction [31:0] $end
$var wire 7 p& l [6:0] $end
$var wire 7 q& r [6:0] $end
$var wire 7 r& s [6:0] $end
$var wire 7 s& opcode [6:0] $end
$var wire 5 t& RegD [4:0] $end
$var wire 5 u& Reg2 [4:0] $end
$var wire 5 v& Reg1 [4:0] $end
$var reg 1 H ALUSrc $end
$var reg 32 w& Imm [31:0] $end
$upscope $end
$scope module cu2 $end
$var wire 7 x& i [6:0] $end
$var wire 32 y& instruction [31:0] $end
$var wire 7 z& l [6:0] $end
$var wire 7 {& r [6:0] $end
$var wire 7 |& s [6:0] $end
$var wire 7 }& opcode [6:0] $end
$var wire 5 ~& RegD [4:0] $end
$var wire 5 !' Reg2 [4:0] $end
$var wire 5 "' Reg1 [4:0] $end
$var reg 1 G ALUSrc $end
$var reg 32 #' Imm [31:0] $end
$upscope $end
$upscope $end
$upscope $end
$scope begin $ivl_for_loop4 $end
$var integer 32 $' i [31:0] $end
$upscope $end
$scope begin $ivl_for_loop5 $end
$var integer 32 %' i [31:0] $end
$upscope $end
$upscope $end
$enddefinitions $end
$comment Show the parameter values. $end
$dumpall
b11000011010100000 F&
b110100101101110011100110111010001110010011101010110001101110100011010010110111101101110010111110110110101100101011011010110111101110010011110010010111001101101011001010110110101101000 8&
b11 7&
b10000000000 6&
b110100101101110011100110111010001110010011101010110001101110100011010010110111101101110010111110110110101100101011011010110111101110010011110010010111001101101011001010110110101101000 *&
b11 )&
b10000000000 (&
b110100101101110011100110111010001110010011101010110001101110100011010010110111101101110010111110110110101100101011011010110111101110010011110010010111001101101011001010110110101101000 z%
b11 y%
b10000000000 x%
b110100101101110011100110111010001110010011101010110001101110100011010010110111101101110010111110110110101100101011011010110111101110010011110010010111001101101011001010110110101101000 l%
b11 k%
b10000000000 j%
b110100101101110011100110111010001110010011101010110001101110100011010010110111101101110010111110110110101100101011011010110111101110010011110010010111001101101011001010110110101101000 ^%
b11 ]%
b10000000000 \%
b110100101101110011100110111010001110010011101010110001101110100011010010110111101101110010111110110110101100101011011010110111101110010011110010010111001101101011001010110110101101000 Q%
b11 P%
b10000000000 O%
$end
#0
$dumpvars
b0 %'
b0 $'
b0 #'
bx "'
bx !'
bx ~&
bx }&
b100011 |&
b110011 {&
b11 z&
bx y&
b10011 x&
b0 w&
bx v&
bx u&
bx t&
bx s&
b100011 r&
b110011 q&
b11 p&
bx o&
b10011 n&
bx m&
bx l&
0k&
0j&
bx i&
0h&
b0 g&
b0 f&
bx e&
bx d&
bx c&
bx b&
bx a&
bx `&
bx _&
bx ^&
b100 ]&
b0 \&
bx [&
bx Z&
bx Y&
bx X&
bx W&
bx V&
bx U&
bx T&
xS&
xR&
bx Q&
bx P&
bx O&
bx N&
bx M&
bx L&
0K&
b0 J&
bx I&
b10 H&
b0 G&
1E&
bx D&
bx C&
b10 B&
b0 A&
b0 @&
b0 ?&
x>&
bx =&
x<&
bx ;&
x:&
bx 9&
05&
b0 4&
03&
12&
bx 1&
x0&
bx /&
x.&
bx -&
x,&
bx +&
0'&
b0 &&
0%&
1$&
bx #&
x"&
bx !&
x~%
bx }%
x|%
bx {%
0w%
b0 v%
0u%
1t%
bx s%
xr%
bx q%
xp%
bx o%
xn%
bx m%
0i%
b0 h%
0g%
1f%
bx e%
xd%
bx c%
xb%
bx a%
x`%
bx _%
0[%
b0 Z%
0Y%
1X%
bx W%
xV%
bx U%
xT%
bx S%
bx R%
0N%
b0 M%
0L%
1K%
bx J%
0I%
bx H%
bx G%
xF%
bx E%
bx D%
0C%
xB%
xA%
x@%
x?%
x>%
x=%
x<%
x;%
x:%
x9%
x8%
x7%
x6%
x5%
x4%
x3%
x2%
x1%
x0%
x/%
x.%
x-%
x,%
x+%
x*%
x)%
x(%
x'%
x&%
x%%
x$%
x#%
x"%
x!%
x~$
x}$
x|$
x{$
xz$
xy$
xx$
xw$
xv$
xu$
xt$
xs$
xr$
xq$
xp$
xo$
xn$
xm$
xl$
xk$
xj$
xi$
xh$
xg$
xf$
xe$
xd$
xc$
xb$
xa$
x`$
x_$
x^$
x]$
x\$
x[$
xZ$
xY$
xX$
xW$
xV$
xU$
xT$
xS$
xR$
xQ$
xP$
xO$
xN$
xM$
xL$
xK$
xJ$
xI$
xH$
xG$
xF$
xE$
xD$
xC$
xB$
xA$
x@$
x?$
x>$
x=$
x<$
x;$
x:$
x9$
x8$
x7$
x6$
x5$
x4$
x3$
x2$
x1$
x0$
x/$
x.$
x-$
x,$
x+$
x*$
x)$
x($
x'$
x&$
x%$
x$$
x#$
x"$
x!$
x~#
x}#
x|#
x{#
xz#
xy#
xx#
xw#
xv#
xu#
xt#
xs#
xr#
xq#
xp#
xo#
xn#
xm#
xl#
xk#
xj#
xi#
xh#
xg#
xf#
xe#
xd#
xc#
xb#
xa#
bx `#
bx _#
x^#
bx ]#
1\#
bx [#
bx Z#
bx Y#
bx X#
bx W#
bx V#
bx U#
bx T#
bx S#
bx R#
0Q#
xP#
xO#
xN#
xM#
xL#
xK#
xJ#
xI#
xH#
xG#
xF#
xE#
xD#
xC#
xB#
xA#
x@#
x?#
x>#
x=#
x<#
x;#
x:#
x9#
x8#
x7#
x6#
x5#
x4#
x3#
x2#
x1#
x0#
x/#
x.#
x-#
x,#
x+#
x*#
x)#
x(#
x'#
x&#
x%#
x$#
x##
x"#
x!#
x~"
x}"
x|"
x{"
xz"
xy"
xx"
xw"
xv"
xu"
xt"
xs"
xr"
xq"
xp"
xo"
xn"
xm"
xl"
xk"
xj"
xi"
xh"
xg"
xf"
xe"
xd"
xc"
xb"
xa"
x`"
x_"
x^"
x]"
x\"
x["
xZ"
xY"
xX"
xW"
xV"
xU"
xT"
xS"
xR"
xQ"
xP"
xO"
xN"
xM"
xL"
xK"
xJ"
xI"
xH"
xG"
xF"
xE"
xD"
xC"
xB"
xA"
x@"
x?"
x>"
x="
x<"
x;"
x:"
x9"
x8"
x7"
x6"
x5"
x4"
x3"
x2"
x1"
x0"
x/"
x."
x-"
x,"
x+"
x*"
x)"
x("
x'"
x&"
x%"
x$"
x#"
x""
x!"
x~
x}
x|
x{
xz
xy
xx
xw
xv
xu
xt
xs
xr
xq
xp
xo
bx n
bx m
xl
bx k
1j
bx i
bx h
bx g
bx f
bx e
bx d
bx c
bx b
bx a
bx `
0_
bx ^
x]
x\
x[
xZ
xY
xX
xW
xV
xU
xT
xS
xR
xQ
xP
xO
xN
xM
xL
xK
bx J
bx I
xH
xG
0F
0E
1D
0C
0B
0A
0@
0?
0>
bx =
bx <
1;
1:
09
x8
x7
x6
b0 5
b0 4
bxzzzzzzz 3
12
x1
bx 0
bx /
bx .
bx -
bx ,
bx +
bx *
bx )
bx (
bx '
bx &
bx %
z$
1#
0"
bxzzzzzzz !
$end
#1000
b1 G&
b1100 %'
b100000 $'
1"
#2000
0"
#3000
b10 G&
b1100 %'
b100000 $'
1"
#4000
0"
#5000
b11 G&
b1100 %'
b100000 $'
1"
#6000
0"
#7000
b100 G&
b1100 %'
b100000 $'
1"
#8000
0"
#9000
b101 G&
b1100 %'
b100000 $'
1"
#10000
0"
#11000
b110 G&
b1100 %'
b100000 $'
1"
#12000
0"
#13000
b111 G&
b1100 %'
b100000 $'
1"
#14000
0"
#15000
b1000 G&
b1100 %'
b100000 $'
1"
#16000
0"
#17000
b1001 G&
b1100 %'
b100000 $'
1"
#18000
0"
#19000
b1010 G&
b1100 %'
b100000 $'
1"
#20000
0"
0#
#21000
b1011 G&
b101 ]&
b1100 %'
b100000 $'
1"
#22000
0"
#23000
b1100 G&
b110 ]&
b1100 %'
b100000 $'
1"
#24000
0"
#25000
b1101 G&
b111 ]&
b1100 %'
b100000 $'
1"
#26000
0"
